[
  {
    "model": "mainapp.typepricelist",
    "pk": 6,
    "fields": {
      "title": "Retail",
      "description": "Цена для розничных покупателей",
      "sort": 0,
      "active": true
    }
  },
  {
    "model": "mainapp.typepricelist",
    "pk": 7,
    "fields": {
      "title": "Wholesale",
      "description": "Цена для оптовых покупателей",
      "sort": 1,
      "active": true
    }
  },
  {
    "model": "mainapp.typepricelist",
    "pk": 8,
    "fields": {
      "title": "Old price",
      "description": "Цена для отображения в зачеркнутом виде",
      "sort": 2,
      "active": true
    }
  }
]
